Division,WeightClassKg,Place,Name,Team,BodyweightKg,Best3SquatKg,Best3BenchKg,Best3DeadliftKg,TotalKg,Equipment,Event,Sex,BirthDate
Boys,51.71,1,Jesus Puente,La Joya Palmview,51.44,183.7,108.86,183.7,476.27,Single-ply,SBD,M,
Boys,51.71,2,Jan Ramirez,PSJA North,51.71,158.76,99.79,129.27,387.82,Single-ply,SBD,M,
Boys,51.71,3,Luis Garcia #9,Sharyland Pioneer,51.66,124.74,70.31,138.35,333.39,Single-ply,SBD,M,
Boys,51.71,4,Alex Guajardo,La Joya,51.71,120.2,52.16,122.47,294.84,Single-ply,SBD,M,
Boys,51.71,5,Victor Vasquez,Sharyland Pioneer,51.57,104.33,61.23,127.01,292.57,Single-ply,SBD,M,
Boys,51.71,6,Aaron Martinez,PSJA Southwest,51.62,104.33,61.23,127.01,292.57,Single-ply,SBD,M,
Boys,51.71,DQ,Aidan Munoz,PSJA,51.71,83.91,,,,Single-ply,SBD,M,
Boys,51.71,DQ,Jesus Guerrero,Mission Sharyland,47.85,131.54,61.23,,,Single-ply,SBD,M,
Boys,51.71,DQ,Isaias Salinas,McAllen Memorial,51.71,104.33,,,,Single-ply,SBD,M,
Boys,55.79,1,Jose Barberona,PSJA North,55.38,174.63,115.67,161.03,451.32,Single-ply,SBD,M,
Boys,55.79,2,Gael Gonzalez,La Joya Palmview,55.34,131.54,68.04,142.88,342.46,Single-ply,SBD,M,
Boys,55.79,3,Tomas Olvera,McAllen Rowe,55.47,108.86,77.11,131.54,317.51,Single-ply,SBD,M,
Boys,55.79,DQ,Gael Fernandez,Mission,55.79,120.2,70.31,,,Single-ply,SBD,M,
Boys,59.87,1,Giovanni Salazar,La Joya,58.06,215.46,95.25,204.12,514.83,Single-ply,SBD,M,
Boys,59.87,2,Ramiro Yanez,PSJA,59.87,172.37,99.79,188.24,460.4,Single-ply,SBD,M,
Boys,59.87,3,Juan Martinez,Mission Veterans Memorial,56.7,156.49,95.25,174.63,426.38,Single-ply,SBD,M,
Boys,59.87,4,Andrew Knoblach,Sharyland Pioneer,58.51,102.06,61.23,115.67,278.96,Single-ply,SBD,M,
Boys,59.87,DQ,Thomas Marina,Sharyland Pioneer,57.92,95.25,,,,Single-ply,SBD,M,
Boys,59.87,DQ,Jesus Cornado,Sharyland Pioneer,58.06,127.01,,,,Single-ply,SBD,M,
Boys,67.13,1,Justin Chairez,McAllen Memorial,67.13,206.38,117.93,192.78,517.1,Single-ply,SBD,M,
Boys,67.13,2,Adan Elizondo,La Joya,64.77,174.63,122.47,183.7,480.81,Single-ply,SBD,M,
Boys,67.13,3,Tyler Rosales,PSJA North,66.77,183.7,108.86,188.24,480.81,Single-ply,SBD,M,
Boys,67.13,4,Joe Montoya,La Joya,67.13,201.85,83.91,195.04,480.81,Single-ply,SBD,M,
Boys,67.13,5,Anthony Trevino,Rio Grande City Grulla,62.6,151.95,90.72,199.58,442.25,Single-ply,SBD,M,
Boys,67.13,6,Bandon Lopez,Mission Sharyland,66.77,158.76,99.79,181.44,439.98,Single-ply,SBD,M,
Boys,67.13,7,Marco Esparza,Hidalgo Early College,67.13,170.1,104.33,149.69,424.11,Single-ply,SBD,M,
Boys,67.13,8,Yahir Puente,McAllen Memorial,67.13,145.15,90.72,147.42,383.29,Single-ply,SBD,M,
Boys,67.13,9,Emmanuel Vega,Mission Sharyland,64.91,156.49,61.23,154.22,371.95,Single-ply,SBD,M,
Boys,67.13,10,Angel Saldana,Mission,67.13,124.74,90.72,156.49,371.95,Single-ply,SBD,M,
Boys,67.13,DQ,Brandon Arredondo,Rio Grande City,64.86,,,,,Single-ply,SBD,M,
Boys,74.84,1,Roberto Farias,Mission Sharyland,73.94,267.62,151.95,222.26,641.83,Single-ply,SBD,M,
Boys,74.84,2,Fabian Rodriguez,McAllen Memorial,74.84,238.14,131.54,219.99,589.67,Single-ply,SBD,M,
Boys,74.84,3,Luis De Hoyos,Mission Veterans Memorial,73.53,229.06,120.2,210.92,560.19,Single-ply,SBD,M,
Boys,74.84,4,Humberto Serna,Sharyland Pioneer,72.48,192.78,104.33,204.12,501.22,Single-ply,SBD,M,
Boys,74.84,5,Fibencio Ortega,La Joya Juarez-Lincoln,68.49,192.78,129.27,174.63,496.68,Single-ply,SBD,M,
Boys,74.84,6,Rolando Saenz,Mission Sharyland,72.48,208.65,97.52,188.24,494.42,Single-ply,SBD,M,
Boys,74.84,7,Leonardo Perez,Mission,74.84,170.1,102.06,201.85,474,Single-ply,SBD,M,
Boys,74.84,8,Jorge Robles,Sharyland Pioneer,73.26,165.56,95.25,176.9,437.72,Single-ply,SBD,M,
Boys,74.84,9,Fidencio Ozuna,La Joya Juarez-Lincoln,67.54,163.29,120.2,149.69,433.18,Single-ply,SBD,M,
Boys,74.84,10,Justin Hinojosa,PSJA Southwest,74.84,158.76,83.91,172.37,415.04,Single-ply,SBD,M,
Boys,74.84,11,Pablo Jimenez,La Joya,74.84,158.76,83.91,167.83,410.5,Single-ply,SBD,M,
Boys,74.84,12,Alonso Bravo,Mission Veterans Memorial,73.48,154.22,111.13,140.61,405.97,Single-ply,SBD,M,
Boys,74.84,13,Cesar Benavidez,Sharyland Pioneer,70.31,158.76,81.65,147.42,387.82,Single-ply,SBD,M,
Boys,74.84,14,Mario Diaz,Mission Veterans Memorial,74.84,113.4,65.77,161.03,340.19,Single-ply,SBD,M,
Boys,74.84,15,Charlie Lomax,Sharyland Pioneer,73.21,117.93,88.45,131.54,337.93,Single-ply,SBD,M,
Boys,74.84,DQ,Brian Pena,Rio Grande City,70.76,197.31,,,,Single-ply,SBD,M,
Boys,74.84,DQ,Angel Cantu,La Joya Palmview,71.21,188.24,,,,Single-ply,SBD,M,
Boys,82.1,1,Alter Arenas,PSJA North,81.42,283.5,136.08,256.28,675.85,Single-ply,SBD,M,
Boys,82.1,2,Armando Resendez,McAllen Memorial,82.1,229.06,145.15,213.19,587.4,Single-ply,SBD,M,
Boys,82.1,3,Rosbel Zamarripa,La Joya Palmview,80.29,226.8,136.08,217.72,580.6,Single-ply,SBD,M,
Boys,82.1,4,Mauricio Sanchez,Mission Sharyland,79.2,208.65,133.81,226.8,569.26,Single-ply,SBD,M,
Boys,82.1,5,Gonzalo Perez,Mission,82.1,213.19,124.74,210.92,548.85,Single-ply,SBD,M,
Boys,82.1,6,Raymond Villegas,La Joya,82.1,204.12,113.4,204.12,521.63,Single-ply,SBD,M,
Boys,82.1,7,Andres Bonilla,Mission Sharyland,82.05,204.12,111.13,201.85,517.1,Single-ply,SBD,M,
Boys,82.1,8,Jose Rodriguez #10,Rio Grande City,75.3,170.1,124.74,185.97,480.81,Single-ply,SBD,M,
Boys,82.1,9,Felix Villarreal,Mission Veterans Memorial,76.66,167.83,88.45,213.19,469.47,Single-ply,SBD,M,
Boys,82.1,10,Michael DeLeon,Mission Veterans Memorial,80.74,161.03,83.91,181.44,426.38,Single-ply,SBD,M,
Boys,82.1,11,Carlos Martinez #28,McAllen Memorial,82.1,154.22,108.86,163.29,426.38,Single-ply,SBD,M,
Boys,82.1,12,Joseph Garza,PSJA,82.1,151.95,83.91,154.22,390.09,Single-ply,SBD,M,
Boys,82.1,DQ,Jacob Cano,Mission Sharyland,82.1,172.37,,,,Single-ply,SBD,M,
Boys,82.1,DQ,Saul Zepeda,La Joya Palmview,75.75,65.77,,,,Single-ply,SBD,M,
Boys,82.1,DQ,Elian Padilla,La Joya Juarez-Lincoln,82.01,208.65,127.01,,,Single-ply,SBD,M,
Boys,82.1,DQ,Hector Rivera,Rio Grande City,75.3,156.49,,,,Single-ply,SBD,M,
Boys,89.81,1,Aaron Alvarez,PSJA North,84.59,281.23,158.76,238.14,678.12,Single-ply,SBD,M,
Boys,89.81,2,Roldan Briseno,McAllen,85.59,244.94,167.83,215.46,628.23,Single-ply,SBD,M,
Boys,89.81,3,Christopher Sanchez,PSJA Southwest,89.81,213.19,142.88,226.8,582.87,Single-ply,SBD,M,
Boys,89.81,4,Aaron Longoria,Mission Veterans Memorial,88.45,244.94,120.2,215.46,580.6,Single-ply,SBD,M,
Boys,89.81,5,Benjamin Passement,McAllen,87.77,210.92,142.88,215.46,569.26,Single-ply,SBD,M,
Boys,89.81,6,Frank Castillo,Mission Veterans Memorial,89.81,213.19,124.74,213.19,551.11,Single-ply,SBD,M,
Boys,89.81,7,Brian Rodriguez,PSJA North,88,226.8,133.81,183.7,544.31,Single-ply,SBD,M,
Boys,89.81,8,Devin Gonzalez #1,Rio Grande City,88,199.58,127.01,197.31,523.9,Single-ply,SBD,M,
Boys,89.81,9,Mauricio Galindo,Mission Sharyland,89.68,195.04,136.08,183.7,514.83,Single-ply,SBD,M,
Boys,89.81,10,Angel Olvera,La Joya,89.81,192.78,97.52,195.04,485.34,Single-ply,SBD,M,
Boys,89.81,11,Ed Chapa,McAllen Memorial,89.81,190.51,106.59,170.1,467.2,Single-ply,SBD,M,
Boys,89.81,12,Jacob Reyes,La Joya,89.81,183.7,88.45,183.7,455.86,Single-ply,SBD,M,
Boys,89.81,13,Daniel Gonzalez,Mission Sharyland,87.77,172.37,113.4,158.76,444.52,Single-ply,SBD,M,
Boys,89.81,14,Isaiah Ailstock,McAllen,88.99,176.9,108.86,158.76,444.52,Single-ply,SBD,M,
Boys,89.81,15,Ram Garcia,Mission,89.81,136.08,104.33,167.83,408.23,Single-ply,SBD,M,
Boys,89.81,16,Kevin Martinez,PSJA Southwest,89.81,120.2,99.79,106.59,326.59,Single-ply,SBD,M,
Boys,89.81,DQ,Ozzy Reyes,Hidalgo Early College,89.81,147.42,,,,Single-ply,SBD,M,
Boys,89.81,DQ,Abran Ruiz Lozano,Sharyland Pioneer,83.96,183.7,52.62,,,Single-ply,SBD,M,
Boys,89.81,DQ,Edward Villaneva,PSJA North,88.5,165.56,129.27,,,Single-ply,SBD,M,
Boys,99.79,1,Albert Vargas,La Joya Palmview,97.98,263.08,172.37,242.67,678.12,Single-ply,SBD,M,
Boys,99.79,2,Erik Flores,La Joya Juarez-Lincoln,99.7,247.21,136.08,210.92,594.21,Single-ply,SBD,M,
Boys,99.79,3,Daniel Alejandro,McAllen Rowe,98.75,233.6,131.54,204.12,569.26,Single-ply,SBD,M,
Boys,99.79,4,Erick Flores,La Joya Palmview,99.79,224.53,124.74,219.99,569.26,Single-ply,SBD,M,
Boys,99.79,5,Quan Nguyen,McAllen,97.84,240.4,115.67,201.85,557.92,Single-ply,SBD,M,
Boys,99.79,6,Donnie Caballero,Hidalgo Early College,99.79,192.78,133.81,215.46,542.04,Single-ply,SBD,M,
Boys,99.79,7,Zeke Cuadros,Mission,99.79,206.38,127.01,192.78,526.17,Single-ply,SBD,M,
Boys,99.79,8,Abelino Lopez,Rio Grande City Grulla,95.25,204.12,115.67,195.04,514.83,Single-ply,SBD,M,
Boys,99.79,9,Eqequiel Corondao,La Joya,99.79,183.7,127.01,197.31,508.02,Single-ply,SBD,M,
Boys,99.79,10,Joey Cavazos,McAllen Rowe,97.66,190.51,122.47,190.51,503.49,Single-ply,SBD,M,
Boys,99.79,11,David Resio,Sharyland Pioneer,90.45,181.44,106.59,165.56,453.59,Single-ply,SBD,M,
Boys,99.79,12,Rene Garcia,La Joya Juarez-Lincoln,93.44,163.29,117.93,163.29,444.52,Single-ply,SBD,M,
Boys,99.79,13,Justin Gonzalez,McAllen Rowe,96.43,142.88,102.06,174.63,419.57,Single-ply,SBD,M,
Boys,99.79,14,Jorge Garoy,PSJA,99.79,163.29,104.33,151.95,419.57,Single-ply,SBD,M,
Boys,99.79,15,Roy Alaniz,La Joya,99.79,147.42,83.91,179.17,410.5,Single-ply,SBD,M,
Boys,99.79,16,Gabriel Dougherty,McAllen Rowe,92.99,142.88,79.38,147.42,369.68,Single-ply,SBD,M,
Boys,99.79,DQ,Zac Compean,Rio Grande City,96.62,,,,,Single-ply,SBD,M,
Boys,99.79,DQ,Cristian Hernandez #1,Mission,99.79,247.21,,,,Single-ply,SBD,M,
Boys,109.77,1,Fabian Ahumada,Mission,109.77,269.89,142.88,226.8,639.57,Single-ply,SBD,M,
Boys,109.77,2,Robert Garza,PSJA,109.77,254.01,151.95,208.65,614.62,Single-ply,SBD,M,
Boys,109.77,3,Chris Martinez,PSJA North,105.6,240.4,151.95,210.92,603.28,Single-ply,SBD,M,
Boys,109.77,4,Chris Casiano,Mission Veterans Memorial,108,226.8,147.42,217.72,591.94,Single-ply,SBD,M,
Boys,109.77,5,Darrin Olazaron,PSJA Southwest,109.77,247.21,142.88,195.04,585.13,Single-ply,SBD,M,
Boys,109.77,6,Gonzalo Montalvo,Rio Grande City Grulla,108.86,233.6,136.08,208.65,578.33,Single-ply,SBD,M,
Boys,109.77,7,Kris Garza,Rio Grande City,107.95,226.8,131.54,215.46,573.79,Single-ply,SBD,M,
Boys,109.77,8,Kaleb Garza,Rio Grande City,107.95,215.46,127.01,215.46,557.92,Single-ply,SBD,M,
Boys,109.77,9,Houston Torres,Mission,109.77,226.8,117.93,197.31,542.04,Single-ply,SBD,M,
Boys,109.77,10,Anthony Celis,McAllen Rowe,102.42,199.58,120.2,208.65,528.44,Single-ply,SBD,M,
Boys,109.77,11,Fausto Anaya,McAllen Rowe,108.64,204.12,117.93,188.24,510.29,Single-ply,SBD,M,
Boys,109.77,12,Jj Johnson,McAllen Memorial,109.77,215.46,113.4,181.44,510.29,Single-ply,SBD,M,
Boys,109.77,13,Juan Cantu,McAllen,103.06,183.7,108.86,206.38,498.95,Single-ply,SBD,M,
Boys,109.77,14,Joshua Herrera,McAllen,103.42,195.04,108.86,188.24,492.15,Single-ply,SBD,M,
Boys,109.77,15,Alex Elizondo,McAllen Memorial,109.77,192.78,111.13,151.95,455.86,Single-ply,SBD,M,
Boys,109.77,16,Caleb Vega,McAllen,102.19,183.7,92.99,174.63,451.32,Single-ply,SBD,M,
Boys,124.74,1,Esquiel Chavez,La Joya,120.2,272.16,158.76,219.99,650.91,Single-ply,SBD,M,
Boys,124.74,2,Ezequiel Garcia,La Joya Juarez-Lincoln,112.94,254.01,163.29,208.65,625.96,Single-ply,SBD,M,
Boys,124.74,3,Aaron Noriega,PSJA,124.28,249.48,154.22,215.46,619.15,Single-ply,SBD,M,
Boys,124.74,4,Issac Longoria,Hidalgo Early College,124.74,249.48,142.88,181.44,573.79,Single-ply,SBD,M,
Boys,124.74,5,Luis Gutierrez,PSJA,124.28,249.48,131.54,167.83,548.85,Single-ply,SBD,M,
Boys,124.74,6,Jaden Morales,Mission,124.74,217.72,124.74,201.85,544.31,Single-ply,SBD,M,
Boys,124.74,7,Anthony Garcia,PSJA North,110.77,226.8,124.74,165.56,517.1,Single-ply,SBD,M,
Boys,124.74,8,Lupe Bazan,Rio Grande City Grulla,124.28,204.12,122.47,183.7,510.29,Single-ply,SBD,M,
Boys,124.74,9,James Santos,McAllen,123.83,201.85,113.4,174.63,489.88,Single-ply,SBD,M,
Boys,124.74,10,Thomas Domian,McAllen Memorial,124.74,183.7,117.93,181.44,483.08,Single-ply,SBD,M,
Boys,124.74,DQ,Alex Mendiola,La Joya Palmview,121.11,272.16,149.69,,,Single-ply,SBD,M,
Boys,124.74+,1,Joel Iracheta,PSJA North,141.52,349.27,199.58,235.87,784.71,Single-ply,SBD,M,
Boys,124.74+,2,Sergio Reyna,McAllen Memorial,126.55,317.51,190.51,235.87,743.89,Single-ply,SBD,M,
Boys,124.74+,3,Israel Monsivaiz,La Joya Juarez-Lincoln,125.01,254.01,167.83,242.67,664.51,Single-ply,SBD,M,
Boys,124.74+,4,David Garza,Hidalgo Early College,127.01,265.35,158.76,213.19,637.3,Single-ply,SBD,M,
Boys,124.74+,5,Anthony Ortiz,Rio Grande City,127.91,226.8,154.22,238.14,619.15,Single-ply,SBD,M,
Boys,124.74+,6,Jacob Mata,McAllen Rowe,151.14,222.26,176.9,206.38,605.55,Single-ply,SBD,M,
Boys,124.74+,7,Aalok Zimmerman,McAllen Rowe,127.01,238.14,154.22,192.78,585.13,Single-ply,SBD,M,
Boys,124.74+,8,Jimmy Talmantes,McAllen Rowe,137.21,249.48,133.81,197.31,580.6,Single-ply,SBD,M,
Boys,124.74+,9,Gustavo Pedraza,Mission,127.46,183.7,124.74,183.7,492.15,Single-ply,SBD,M,
Boys,124.74+,10,Robert Garcia #12,PSJA Southwest,126.55,170.1,142.88,158.76,471.74,Single-ply,SBD,M,
Boys,124.74+,11,Tony Garcia,McAllen Rowe,129.27,163.29,115.67,161.03,439.98,Single-ply,SBD,M,
Boys,124.74+,12,Jorge Rendon,PSJA,126.55,183.7,83.91,158.76,426.38,Single-ply,SBD,M,
Boys,124.74+,13,Isaias Garcia,La Joya Palmview,163.38,158.76,68.04,183.7,410.5,Single-ply,SBD,M,
